noise/dual_adr1000_lna_raw000.csv

"Record Length",10000,"Points",-1.80000000e+000,3.56937482e-007
"Sample Interval",1.00000000e-003,s,-1.79900000e+000,3.59874982e-007
"Trigger Point",1800,"Samples",-1.79800000e+000,3.61921857e-007
"Trigger Time",5.17179478e-004,s,-1.79700000e+000,3.64171857e-007
"",,,-1.79600000e+000,3.66265607e-007
"Horizontal Offset",-1.80000000e+000,s,-1.79500000e+000,3.68031232e-007
,,,-1.79400000e+000,3.69578106e-007
,,,-1.79300000e+000,3.70515606e-007
,,,-1.79200000e+000,3.71937481e-007
,,,-1.79100000e+000,3.72484356e-007
,,,-1.79000000e+000,3.73140606e-007
,,,-1.78900000e+000,3.73671856e-007
,,,-1.78800000e+000,3.74218731e-007
,,,-1.78700000e+000,3.74218731e-007
,,,-1.78600000e+000,3.74343731e-007
,,,-1.78500000e+000,3.74374981e-007
,,,-1.78400000e+000,3.73953106e-007
,,,-1.78300000e+000,3.72171856e-007
,,,-1.78200000e+000,3.71249981e-007
,,,-1.78100000e+000,3.71468731e-007
,,,-1.78000000e+000,3.69843731e-007
,,,-1.77900000e+000,3.68703107e-007
,,,-1.77800000e+000,3.67421857e-007
,,,-1.77700000e+000,3.65406232e-007
,,,-1.77600000e+000,3.64124982e-007
,,,-1.77500000e+000,3.61796857e-007
,,,-1.77400000e+000,3.60078107e-007
,,,-1.77300000e+000,3.58296857e-007
,,,-1.77200000e+000,3.56515607e-007
,,,-1.77100000e+000,3.54343732e-007
,,,-1.77000000e+000,3.52796857e-007
,,,-1.76900000e+000,3.50249983e-007
,,,-1.76800000e+000,3.48234358e-007
,,,-1.76700000e+000,3.46031233e-007
,,,-1.76600000e+000,3.43671858e-007
,,,-1.76500000e+000,3.41687483e-007
,,,-1.76400000e+000,3.39093733e-007
,,,-1.76300000e+000,3.36984358e-007
,,,-1.76200000e+000,3.34812484e-007
,,,-1.76100000e+000,3.33234359e-007
,,,-1.76000000e+000,3.30749984e-007
,,,-1.75900000e+000,3.27765609e-007
,,,-1.75800000e+000,3.26156234e-007
,,,-1.75700000e+000,3.24124984e-007
,,,-1.75600000e+000,3.22624984e-007
,,,-1.75500000e+000,3.20718734e-007
,,,-1.75400000e+000,3.18374985e-007
,,,-1.75300000e+000,3.16468735e-007
,,,-1.75200000e+000,3.15015610e-007
,,,-1.75100000e+000,3.13156235e-007
,,,-1.75000000e+000,3.11609360e-007
,,,-1.74900000e+000,3.09828110e-007
,,,-1.74800000e+000,3.08593735e-007
,,,-1.74700000e+000,3.07078110e-007
,,,-1.74600000e+000,3.05796860e-007
,,,-1.74500000e+000,3.04984360e-007
,,,-1.74400000e+000,3.03140610e-007
,,,-1.74300000e+000,3.02046860e-007
,,,-1.74200000e+000,3.01156236e-007
,,,-1.74100000e+000,2.99531236e-007
,,,-1.74000000e+000,2.98921861e-007
,,,-1.73900000e+000,2.98140611e-007
,,,-1.73800000e+000,2.97249986e-007
,,,-1.73700000e+000,2.96953111e-007
,,,-1.73600000e+000,2.95578111e-007
,,,-1.73500000e+000,2.95421861e-007
,,,-1.73400000e+000,2.94812486e-007
,,,-1.73300000e+000,2.94781236e-007
,,,-1.73200000e+000,2.94281236e-007
,,,-1.73100000e+000,2.94156236e-007
,,,-1.73000000e+000,2.94515611e-007
,,,-1.72900000e+000,2.93421861e-007
,,,-1.72800000e+000,2.94124986e-007
,,,-1.72700000e+000,2.93890611e-007
,,,-1.72600000e+000,2.93953111e-007
,,,-1.72500000e+000,2.93703111e-007
,,,-1.72400000e+000,2.93312486e-007
,,,-1.72300000e+000,2.93531236e-007
,,,-1.72200000e+000,2.94578111e-007
,,,-1.72100000e+000,2.94734361e-007
,,,-1.72000000e+000,2.94203111e-007
,,,-1.71900000e+000,2.94734361e-007
,,,-1.71800000e+000,2.94499986e-007
,,,-1.71700000e+000,2.94734361e-007
,,,-1.71600000e+000,2.95015611e-007
,,,-1.71500000e+000,2.94999986e-007
,,,-1.71400000e+000,2.95421861e-007
,,,-1.71300000e+000,2.95171861e-007
,,,-1.71200000e+000,2.95499986e-007
,,,-1.71100000e+000,2.95781236e-007
,,,-1.71000000e+000,2.95281236e-007
,,,-1.70900000e+000,2.95124986e-007
,,,-1.70800000e+000,2.94734361e-007
,,,-1.70700000e+000,2.94499986e-007
,,,-1.70600000e+000,2.94656236e-007
,,,-1.70500000e+000,2.93578111e-007
,,,-1.70400000e+000,2.92609361e-007
,,,-1.70300000e+000,2.92078111e-007
,,,-1.70200000e+000,2.91453111e-007
,,,-1.70100000e+000,2.91093736e-007
,,,-1.70000000e+000,2.90062486e-007
,,,-1.69900000e+000,2.89203111e-007
,,,-1.69800000e+000,2.87937486e-007
,,,-1.69700000e+000,2.86843736e-007
,,,-1.69600000e+000,2.86140611e-007
,,,-1.69500000e+000,2.85171861e-007
,,,-1.69400000e+000,2.84484362e-007
,,,-1.69300000e+000,2.83296862e-007
,,,-1.69200000e+000,2.81749987e-007
,,,-1.69100000e+000,2.80499987e-007
,,,-1.69000000e+000,2.78734362e-007
,,,-1.68900000e+000,2.77359362e-007
,,,-1.68800000e+000,2.76906237e-007
,,,-1.68700000e+000,2.75828112e-007
,,,-1.68600000e+000,2.74734362e-007
,,,-1.68500000e+000,2.73312487e-007
,,,-1.68400000e+000,2.73374987e-007
,,,-1.68300000e+000,2.72031237e-007
,,,-1.68200000e+000,2.71453112e-007
,,,-1.68100000e+000,2.70609362e-007
,,,-1.68000000e+000,2.70296862e-007
,,,-1.67900000e+000,2.69359362e-007
,,,-1.67800000e+000,2.69406237e-007
,,,-1.67700000e+000,2.69062487e-007
,,,-1.67600000e+000,2.68359362e-007
,,,-1.67500000e+000,2.68046862e-007
,,,-1.67400000e+000,2.68171862e-007
,,,-1.67300000e+000,2.67578113e-007
,,,-1.67200000e+000,2.67734363e-007
,,,-1.67100000e+000,2.67656238e-007
,,,-1.67000000e+000,2.67781238e-007
,,,-1.66900000e+000,2.68249987e-007
,,,-1.66800000e+000,2.67812488e-007
,,,-1.66700000e+000,2.68437487e-007
,,,-1.66600000e+000,2.68812487e-007
,,,-1.66500000e+000,2.69406237e-007
,,,-1.66400000e+000,2.69796862e-007
,,,-1.66300000e+000,2.70437487e-007
,,,-1.66200000e+000,2.71249987e-007
,,,-1.66100000e+000,2.71906237e-007
,,,-1.66000000e+000,2.73421862e-007
,,,-1.65900000e+000,2.74187487e-007
,,,-1.65800000e+000,2.75390612e-007
,,,-1.65700000e+000,2.75624987e-007
,,,-1.65600000e+000,2.76781237e-007
,,,-1.65500000e+000,2.78765612e-007
,,,-1.65400000e+000,2.79499987e-007
,,,-1.65300000e+000,2.81265612e-007
,,,-1.65200000e+000,2.82890612e-007
,,,-1.65100000e+000,2.84140612e-007
,,,-1.65000000e+000,2.86765611e-007
,,,-1.64900000e+000,2.87890611e-007
,,,-1.64800000e+000,2.89437486e-007
,,,-1.64700000e+000,2.91453111e-007
,,,-1.64600000e+000,2.93062486e-007
,,,-1.64500000e+000,2.94703111e-007
,,,-1.64400000e+000,2.96171861e-007
,,,-1.64300000e+000,2.97906236e-007
,,,-1.64200000e+000,2.99406236e-007
,,,-1.64100000e+000,3.00890611e-007
,,,-1.64000000e+000,3.02703110e-007
,,,-1.63900000e+000,3.04484360e-007
,,,-1.63800000e+000,3.06499985e-007
,,,-1.63700000e+000,3.07703110e-007
,,,-1.63600000e+000,3.09703110e-007
,,,-1.63500000e+000,3.10953110e-007
,,,-1.63400000e+000,3.12453110e-007
,,,-1.63300000e+000,3.13968735e-007
,,,-1.63200000e+000,3.15828110e-007
,,,-1.63100000e+000,3.17046860e-007
,,,-1.63000000e+000,3.18328110e-007
,,,-1.62900000e+000,3.19765609e-007
,,,-1.62800000e+000,3.21421859e-007
,,,-1.62700000e+000,3.23046859e-007
,,,-1.62600000e+000,3.24859359e-007
,,,-1.62500000e+000,3.24937484e-007
,,,-1.62400000e+000,3.26109359e-007
,,,-1.62300000e+000,3.26921859e-007
,,,-1.62200000e+000,3.27874984e-007
,,,-1.62100000e+000,3.28968734e-007
,,,-1.62000000e+000,3.29437484e-007
,,,-1.61900000e+000,3.30640609e-007
,,,-1.61800000e+000,3.31093734e-007
,,,-1.61700000e+000,3.31531234e-007
,,,-1.61600000e+000,3.32171859e-007
,,,-1.61500000e+000,3.32531234e-007
,,,-1.61400000e+000,3.32406234e-007
,,,-1.61300000e+000,3.33234359e-007
,,,-1.61200000e+000,3.33109359e-007
,,,-1.61100000e+000,3.32296859e-007
,,,-1.61000000e+000,3.32531234e-007
,,,-1.60900000e+000,3.32249984e-007
,,,-1.60800000e+000,3.30874984e-007
,,,-1.60700000e+000,3.30859359e-007
,,,-1.60600000e+000,3.29515609e-007
,,,-1.60500000e+000,3.29390609e-007
,,,-1.60400000e+000,3.29781234e-007
,,,-1.60300000e+000,3.28109359e-007
,,,-1.60200000e+000,3.26921859e-007
,,,-1.60100000e+000,3.24515609e-007
,,,-1.60000000e+000,3.22968734e-007
,,,-1.59900000e+000,3.22124984e-007
,,,-1.59800000e+000,3.20624984e-007
,,,-1.59700000e+000,3.19499984e-007
,,,-1.59600000e+000,3.17718735e-007
,,,-1.59500000e+000,3.16281235e-007
,,,-1.59400000e+000,3.14781235e-007
,,,-1.59300000e+000,3.13531235e-007
,,,-1.59200000e+000,3.12874985e-007
,,,-1.59100000e+000,3.11062485e-007
,,,-1.59000000e+000,3.09515610e-007
,,,-1.58900000e+000,3.08593735e-007
,,,-1.58800000e+000,3.07031235e-007
,,,-1.58700000e+000,3.06187485e-007
,,,-1.58600000e+000,3.04765610e-007
,,,-1.58500000e+000,3.03703110e-007
,,,-1.58400000e+000,3.03249985e-007
,,,-1.58300000e+000,3.02468735e-007
,,,-1.58200000e+000,3.01078111e-007
,,,-1.58100000e+000,3.00390611e-007
,,,-1.58000000e+000,2.99953111e-007
,,,-1.57900000e+000,2.99874986e-007
,,,-1.57800000e+000,2.98609361e-007
,,,-1.57700000e+000,2.98671861e-007
,,,-1.57600000e+000,2.99062486e-007
,,,-1.57500000e+000,2.99718736e-007
,,,-1.57400000e+000,2.99187486e-007
,,,-1.57300000e+000,2.99296861e-007
,,,-1.57200000e+000,2.99578111e-007
,,,-1.57100000e+000,2.99531236e-007
,,,-1.57000000e+000,3.00421861e-007
,,,-1.56900000e+000,3.01203111e-007
,,,-1.56800000e+000,3.02015610e-007
,,,-1.56700000e+000,3.02890610e-007
,,,-1.56600000e+000,3.03671860e-007
,,,-1.56500000e+000,3.05249985e-007
,,,-1.56400000e+000,3.05796860e-007
,,,-1.56300000e+000,3.07468735e-007
,,,-1.56200000e+000,3.08312485e-007
,,,-1.56100000e+000,3.09968735e-007
,,,-1.56000000e+000,3.10859360e-007
,,,-1.55900000e+000,3.12609360e-007
,,,-1.55800000e+000,3.13078110e-007
,,,-1.55700000e+000,3.14578110e-007
,,,-1.55600000e+000,3.15828110e-007
,,,-1.55500000e+000,3.16640610e-007
,,,-1.55400000e+000,3.17593735e-007
,,,-1.55300000e+000,3.18265610e-007
,,,-1.55200000e+000,3.18921859e-007
,,,-1.55100000e+000,3.19734359e-007
,,,-1.55000000e+000,3.20187484e-007
,,,-1.54900000e+000,3.20624984e-007
,,,-1.54800000e+000,3.20843734e-007
,,,-1.54700000e+000,3.21781234e-007
,,,-1.54600000e+000,3.21843734e-007
,,,-1.54500000e+000,3.21046859e-007
,,,-1.54400000e+000,3.20687484e-007
,,,-1.54300000e+000,3.19734359e-007
,,,-1.54200000e+000,3.19343734e-007
,,,-1.54100000e+000,3.18265610e-007
,,,-1.54000000e+000,3.17359360e-007
,,,-1.53900000e+000,3.16281235e-007
,,,-1.53800000e+000,3.15046860e-007
,,,-1.53700000e+000,3.13890610e-007
,,,-1.53600000e+000,3.13218735e-007
,,,-1.53500000e+000,3.11203110e-007
,,,-1.53400000e+000,3.09781235e-007
,,,-1.53300000e+000,3.08734360e-007
,,,-1.53200000e+000,3.06296860e-007
,,,-1.53100000e+000,3.04531235e-007
,,,-1.53000000e+000,3.03437485e-007
,,,-1.52900000e+000,3.01281236e-007
,,,-1.52800000e+000,3.00499986e-007
,,,-1.52700000e+000,2.99953111e-007
,,,-1.52600000e+000,2.98640611e-007
,,,-1.52500000e+000,2.96703111e-007
,,,-1.52400000e+000,2.96437486e-007
,,,-1.52300000e+000,2.95624986e-007
,,,-1.52200000e+000,2.95124986e-007
,,,-1.52100000e+000,2.94734361e-007
,,,-1.52000000e+000,2.94593736e-007
,,,-1.51900000e+000,2.94859361e-007
,,,-1.51800000e+000,2.94999986e-007
,,,-1.51700000e+000,2.95671861e-007
,,,-1.51600000e+000,2.96140611e-007
,,,-1.51500000e+000,2.96406236e-007
,,,-1.51400000e+000,2.97296861e-007
,,,-1.51300000e+000,2.98609361e-007
,,,-1.51200000e+000,2.99343736e-007
,,,-1.51100000e+000,3.00468736e-007
,,,-1.51000000e+000,3.01203111e-007
,,,-1.50900000e+000,3.03093735e-007
,,,-1.50800000e+000,3.04828110e-007
,,,-1.50700000e+000,3.08593735e-007
,,,-1.50600000e+000,3.10437485e-007
,,,-1.50500000e+000,3.12171860e-007
,,,-1.50400000e+000,3.13999985e-007
,,,-1.50300000e+000,3.15593735e-007
,,,-1.50200000e+000,3.18296860e-007
,,,-1.50100000e+000,3.20062484e-007
,,,-1.50000000e+000,3.22015609e-007
,,,-1.49900000e+000,3.24781234e-007
,,,-1.49800000e+000,3.27546859e-007
,,,-1.49700000e+000,3.28968734e-007
,,,-1.49600000e+000,3.31281234e-007
,,,-1.49500000e+000,3.33031234e-007
,,,-1.49400000e+000,3.35421858e-007
,,,-1.49300000e+000,3.36749983e-007
,,,-1.49200000e+000,3.38124983e-007
,,,-1.49100000e+000,3.39843733e-007
,,,-1.49000000e+000,3.40890608e-007
,,,-1.48900000e+000,3.41499983e-007
,,,-1.48800000e+000,3.42343733e-007
,,,-1.48700000e+000,3.43906233e-007
,,,-1.48600000e+000,3.43828108e-007
,,,-1.48500000e+000,3.44984358e-007
,,,-1.48400000e+000,3.46015608e-007
,,,-1.48300000e+000,3.46328108e-007
,,,-1.48200000e+000,3.46906233e-007
,,,-1.48100000e+000,3.46921858e-007
,,,-1.48000000e+000,3.47265608e-007
,,,-1.47900000e+000,3.47968733e-007
,,,-1.47800000e+000,3.48499983e-007
,,,-1.47700000e+000,3.48968733e-007
,,,-1.47600000e+000,3.48578108e-007
,,,-1.47500000e+000,3.48624983e-007
,,,-1.47400000e+000,3.49343733e-007
,,,-1.47300000e+000,3.49859358e-007
,,,-1.47200000e+000,3.49624983e-007
,,,-1.47100000e+000,3.49859358e-007
,,,-1.47000000e+000,3.50468733e-007
,,,-1.46900000e+000,3.51140608e-007
,,,-1.46800000e+000,3.51281233e-007
,,,-1.46700000e+000,3.51906233e-007
,,,-1.46600000e+000,3.52484357e-007
,,,-1.46500000e+000,3.53031232e-007
,,,-1.46400000e+000,3.53953107e-007
,,,-1.46300000e+000,3.54578107e-007
,,,-1.46200000e+000,3.55281232e-007
,,,-1.46100000e+000,3.56203107e-007
,,,-1.46000000e+000,3.56703107e-007
,,,-1.45900000e+000,3.57078107e-007
,,,-1.45800000e+000,3.58828107e-007
,,,-1.45700000e+000,3.58984357e-007
,,,-1.45600000e+000,3.59374982e-007
,,,-1.45500000e+000,3.59749982e-007
,,,-1.45400000e+000,3.60187482e-007
,,,-1.45300000e+000,3.60640607e-007
,,,-1.45200000e+000,3.61062482e-007
,,,-1.45100000e+000,3.61812482e-007
,,,-1.45000000e+000,3.62343732e-007
,,,-1.44900000e+000,3.62468732e-007
,,,-1.44800000e+000,3.62156232e-007
,,,-1.44700000e+000,3.62890607e-007
,,,-1.44600000e+000,3.63124982e-007
,,,-1.44500000e+000,3.62781232e-007
,,,-1.44400000e+000,3.63015607e-007
,,,-1.44300000e+000,3.62578107e-007
,,,-1.44200000e+000,3.62156232e-007
,,,-1.44100000e+000,3.61968732e-007
,,,-1.44000000e+000,3.61343732e-007
,,,-1.43900000e+000,3.60453107e-007
,,,-1.43800000e+000,3.59671857e-007
,,,-1.43700000e+000,3.57984357e-007
,,,-1.43600000e+000,3.56515607e-007
,,,-1.43500000e+000,3.54656232e-007
,,,-1.43400000e+000,3.53578107e-007
,,,-1.43300000e+000,3.51874983e-007
,,,-1.43200000e+000,3.49281233e-007
,,,-1.43100000e+000,3.48046858e-007
,,,-1.43000000e+000,3.45593733e-007
,,,-1.42900000e+000,3.43203108e-007
,,,-1.42800000e+000,3.40796858e-007
,,,-1.42700000e+000,3.38015608e-007
,,,-1.42600000e+000,3.35281234e-007
,,,-1.42500000e+000,3.33031234e-007
,,,-1.42400000e+000,3.30437484e-007
,,,-1.42300000e+000,3.27796859e-007
,,,-1.42200000e+000,3.24609359e-007
,,,-1.42100000e+000,3.21531234e-007
,,,-1.42000000e+000,3.19031234e-007
,,,-1.41900000e+000,3.15937485e-007
,,,-1.41800000e+000,3.13531235e-007
,,,-1.41700000e+000,3.10218735e-007
,,,-1.41600000e+000,3.07046860e-007
,,,-1.41500000e+000,3.04828110e-007
,,,-1.41400000e+000,3.02171860e-007
,,,-1.41300000e+000,2.99234361e-007
,,,-1.41200000e+000,2.96859361e-007
,,,-1.41100000e+000,2.93453111e-007
,,,-1.41000000e+000,2.91109361e-007
,,,-1.40900000e+000,2.88984361e-007
,,,-1.40800000e+000,2.86656236e-007
,,,-1.40700000e+000,2.84593737e-007
,,,-1.40600000e+000,2.82624987e-007
,,,-1.40500000e+000,2.80578112e-007
,,,-1.40400000e+000,2.77765612e-007
,,,-1.40300000e+000,2.75484362e-007
,,,-1.40200000e+000,2.74203112e-007
,,,-1.40100000e+000,2.72312487e-007
,,,-1.40000000e+000,2.70609362e-007
,,,-1.39900000e+000,2.68671862e-007
,,,-1.39800000e+000,2.66312488e-007
,,,-1.39700000e+000,2.64109363e-007
,,,-1.39600000e+000,2.62953113e-007
,,,-1.39500000e+000,2.61437488e-007
,,,-1.39400000e+000,2.60078113e-007
,,,-1.39300000e+000,2.58921863e-007
,,,-1.39200000e+000,2.57749988e-007
,,,-1.39100000e+000,2.57296863e-007
,,,-1.39000000e+000,2.56593738e-007
,,,-1.38900000e+000,2.55749988e-007
,,,-1.38800000e+000,2.55359363e-007
,,,-1.38700000e+000,2.54671863e-007
,,,-1.38600000e+000,2.54203113e-007
,,,-1.38500000e+000,2.52609363e-007
,,,-1.38400000e+000,2.52890613e-007
,,,-1.38300000e+000,2.51531238e-007
,,,-1.38200000e+000,2.50984364e-007
,,,-1.38100000e+000,2.50296864e-007
,,,-1.38000000e+000,2.49703114e-007
,,,-1.37900000e+000,2.49640614e-007
,,,-1.37800000e+000,2.48937489e-007
,,,-1.37700000e+000,2.49296864e-007
,,,-1.37600000e+000,2.49171864e-007
,,,-1.37500000e+000,2.48812489e-007
,,,-1.37400000e+000,2.48859364e-007
,,,-1.37300000e+000,2.48968739e-007
,,,-1.37200000e+000,2.48203114e-007
,,,-1.37100000e+000,2.48203114e-007
,,,-1.37000000e+000,2.47859364e-007
,,,-1.36900000e+000,2.47015614e-007
,,,-1.36800000e+000,2.47265614e-007
,,,-1.36700000e+000,2.47359364e-007
,,,-1.36600000e+000,2.46281239e-007
,,,-1.36500000e+000,2.45656239e-007
,,,-1.36400000e+000,2.45796864e-007
,,,-1.36300000e+000,2.45687489e-007
,,,-1.36200000e+000,2.46187489e-007
,,,-1.36100000e+000,2.47203114e-007
,,,-1.36000000e+000,2.46609364e-007
,,,-1.35900000e+000,2.46234364e-007
,,,-1.35800000e+000,2.46656239e-007
,,,-1.35700000e+000,2.46390614e-007
,,,-1.35600000e+000,2.46312489e-007
,,,-1.35500000e+000,2.47578114e-007
,,,-1.35400000e+000,2.48546864e-007
,,,-1.35300000e+000,2.48749989e-007
,,,-1.35200000e+000,2.49531239e-007
,,,-1.35100000e+000,2.50343739e-007
,,,-1.35000000e+000,2.51640613e-007
,,,-1.34900000e+000,2.52609363e-007
,,,-1.34800000e+000,2.53812488e-007
,,,-1.34700000e+000,2.55281238e-007
,,,-1.34600000e+000,2.56562488e-007
,,,-1.34500000e+000,2.57609363e-007
,,,-1.34400000e+000,2.59499988e-007
,,,-1.34300000e+000,2.60078113e-007
,,,-1.34200000e+000,2.61749988e-007
,,,-1.34100000e+000,2.63218738e-007
,,,-1.34000000e+000,2.65421863e-007
,,,-1.33900000e+000,2.66703113e-007
,,,-1.33800000e+000,2.68046862e-007
,,,-1.33700000e+000,2.69359362e-007
,,,-1.33600000e+000,2.71109362e-007
,,,-1.33500000e+000,2.73031237e-007
,,,-1.33400000e+000,2.73656237e-007
,,,-1.33300000e+000,2.75046862e-007
,,,-1.33200000e+000,2.76624987e-007
,,,-1.33100000e+000,2.78265612e-007
,,,-1.33000000e+000,2.79734362e-007
,,,-1.32900000e+000,2.80765612e-007
,,,-1.32800000e+000,2.81937487e-007
,,,-1.32700000e+000,2.83828112e-007
,,,-1.32600000e+000,2.85265611e-007
,,,-1.32500000e+000,2.86453111e-007
,,,-1.32400000e+000,2.87031236e-007
,,,-1.32300000e+000,2.87656236e-007
,,,-1.32200000e+000,2.88015611e-007
,,,-1.32100000e+000,2.88281236e-007
,,,-1.32000000e+000,2.88015611e-007
,,,-1.31900000e+000,2.88124986e-007
,,,-1.31800000e+000,2.88234361e-007
,,,-1.31700000e+000,2.87890611e-007
,,,-1.31600000e+000,2.88421861e-007
,,,-1.31500000e+000,2.87499986e-007
,,,-1.31400000e+000,2.87468736e-007
,,,-1.31300000e+000,2.86468736e-007
,,,-1.31200000e+000,2.86140611e-007
,,,-1.31100000e+000,2.85078111e-007
,,,-1.31000000e+000,2.83906237e-007
,,,-1.30900000e+000,2.82468737e-007
,,,-1.30800000e+000,2.81343737e-007
,,,-1.30700000e+000,2.80687487e-007
,,,-1.30600000e+000,2.79468737e-007
,,,-1.30500000e+000,2.77749987e-007
,,,-1.30400000e+000,2.76546862e-007
,,,-1.30300000e+000,2.74749987e-007
,,,-1.30200000e+000,2.74109362e-007
,,,-1.30100000e+000,2.72499987e-007
,,,-1.30000000e+000,2.70281237e-007
,,,-1.29900000e+000,2.69640612e-007
,,,-1.29800000e+000,2.68515612e-007
,,,-1.29700000e+000,2.67437488e-007
,,,-1.29600000e+000,2.65890613e-007
,,,-1.29500000e+000,2.64578113e-007
,,,-1.29400000e+000,2.63406238e-007
,,,-1.29300000e+000,2.62468738e-007
,,,-1.29200000e+000,2.61968738e-007
,,,-1.29100000e+000,2.60734363e-007
,,,-1.29000000e+000,2.60859363e-007
,,,-1.28900000e+000,2.60265613e-007
,,,-1.28800000e+000,2.58765613e-007
,,,-1.28700000e+000,2.57999988e-007
,,,-1.28600000e+000,2.57562488e-007
,,,-1.28500000e+000,2.56562488e-007
,,,-1.28400000e+000,2.56328113e-007
,,,-1.28300000e+000,2.56249988e-007
,,,-1.28200000e+000,2.55796863e-007
,,,-1.28100000e+000,2.55593738e-007
,,,-1.28000000e+000,2.55828113e-007
,,,-1.27900000e+000,2.56484363e-007
,,,-1.27800000e+000,2.56703113e-007
,,,-1.27700000e+000,2.56781238e-007
,,,-1.27600000e+000,2.56406238e-007
,,,-1.27500000e+000,2.56859363e-007
,,,-1.27400000e+000,2.57109363e-007
,,,-1.27300000e+000,2.57796863e-007
,,,-1.27200000e+000,2.58031238e-007
,,,-1.27100000e+000,2.57953113e-007
,,,-1.27000000e+000,2.58343738e-007
,,,-1.26900000e+000,2.59343738e-007
,,,-1.26800000e+000,2.59890613e-007
,,,-1.26700000e+000,2.60390613e-007
,,,-1.26600000e+000,2.60593738e-007
,,,-1.26500000e+000,2.61156238e-007
,,,-1.26400000e+000,2.61624988e-007
,,,-1.26300000e+000,2.62390613e-007
,,,-1.26200000e+000,2.63046863e-007
,,,-1.26100000e+000,2.62906238e-007
,,,-1.26000000e+000,2.63484363e-007
,,,-1.25900000e+000,2.64031238e-007
,,,-1.25800000e+000,2.65531238e-007
,,,-1.25700000e+000,2.67078113e-007
,,,-1.25600000e+000,2.66937488e-007
,,,-1.25500000e+000,2.68390612e-007
,,,-1.25400000e+000,2.69203112e-007
,,,-1.25300000e+000,2.70874987e-007
,,,-1.25200000e+000,2.72390612e-007
,,,-1.25100000e+000,2.73546862e-007
,,,-1.25000000e+000,2.75249987e-007
