noise/single_adr1000_10v_raw000.csv

"Record Length",10000,"Points",-1.70000000e+000,-2.94593735e-007
"Sample Interval",1.00000000e-003,s,-1.69900000e+000,-2.89609360e-007
"Trigger Point",1700,"Samples",-1.69800000e+000,-2.83624985e-007
"Trigger Time",6.47140278e-004,s,-1.69700000e+000,-2.78859361e-007
"",,,-1.69600000e+000,-2.73953111e-007
"Horizontal Offset",-1.70000000e+000,s,-1.69500000e+000,-2.68312486e-007
,,,-1.69400000e+000,-2.63312487e-007
,,,-1.69300000e+000,-2.58484362e-007
,,,-1.69200000e+000,-2.54031237e-007
,,,-1.69100000e+000,-2.48578113e-007
,,,-1.69000000e+000,-2.42812488e-007
,,,-1.68900000e+000,-2.37484363e-007
,,,-1.68800000e+000,-2.31718739e-007
,,,-1.68700000e+000,-2.26109364e-007
,,,-1.68600000e+000,-2.21812489e-007
,,,-1.68500000e+000,-2.16468739e-007
,,,-1.68400000e+000,-2.11531240e-007
,,,-1.68300000e+000,-2.06421865e-007
,,,-1.68200000e+000,-2.01859365e-007
,,,-1.68100000e+000,-1.98203116e-007
,,,-1.68000000e+000,-1.95265616e-007
,,,-1.67900000e+000,-1.91562491e-007
,,,-1.67800000e+000,-1.88703116e-007
,,,-1.67700000e+000,-1.86687491e-007
,,,-1.67600000e+000,-1.83718741e-007
,,,-1.67500000e+000,-1.81609366e-007
,,,-1.67400000e+000,-1.79843742e-007
,,,-1.67300000e+000,-1.77218742e-007
,,,-1.67200000e+000,-1.74812492e-007
,,,-1.67100000e+000,-1.73234367e-007
,,,-1.67000000e+000,-1.71609367e-007
,,,-1.66900000e+000,-1.70453117e-007
,,,-1.66800000e+000,-1.69171867e-007
,,,-1.66700000e+000,-1.68890617e-007
,,,-1.66600000e+000,-1.68234367e-007
,,,-1.66500000e+000,-1.68359367e-007
,,,-1.66400000e+000,-1.68343742e-007
,,,-1.66300000e+000,-1.69562492e-007
,,,-1.66200000e+000,-1.71921867e-007
,,,-1.66100000e+000,-1.73656242e-007
,,,-1.66000000e+000,-1.74859367e-007
,,,-1.65900000e+000,-1.77281242e-007
,,,-1.65800000e+000,-1.80187492e-007
,,,-1.65700000e+000,-1.82578116e-007
,,,-1.65600000e+000,-1.84718741e-007
,,,-1.65500000e+000,-1.87156241e-007
,,,-1.65400000e+000,-1.90484366e-007
,,,-1.65300000e+000,-1.94046866e-007
,,,-1.65200000e+000,-1.97296866e-007
,,,-1.65100000e+000,-2.01078115e-007
,,,-1.65000000e+000,-2.05171865e-007
,,,-1.64900000e+000,-2.09499990e-007
,,,-1.64800000e+000,-2.14796865e-007
,,,-1.64700000e+000,-2.20640614e-007
,,,-1.64600000e+000,-2.26499989e-007
,,,-1.64500000e+000,-2.33609363e-007
,,,-1.64400000e+000,-2.40687488e-007
,,,-1.64300000e+000,-2.47453113e-007
,,,-1.64200000e+000,-2.54453112e-007
,,,-1.64100000e+000,-2.61953112e-007
,,,-1.64000000e+000,-2.69531236e-007
,,,-1.63900000e+000,-2.76421861e-007
,,,-1.63800000e+000,-2.83578110e-007
,,,-1.63700000e+000,-2.91390610e-007
,,,-1.63600000e+000,-2.99390609e-007
,,,-1.63500000e+000,-3.07296859e-007
,,,-1.63400000e+000,-3.15296859e-007
,,,-1.63300000e+000,-3.23578108e-007
,,,-1.63200000e+000,-3.32499983e-007
,,,-1.63100000e+000,-3.41749982e-007
,,,-1.63000000e+000,-3.51703106e-007
,,,-1.62900000e+000,-3.61703106e-007
,,,-1.62800000e+000,-3.71687480e-007
,,,-1.62700000e+000,-3.81546855e-007
,,,-1.62600000e+000,-3.91999979e-007
,,,-1.62500000e+000,-4.00906228e-007
,,,-1.62400000e+000,-4.10749978e-007
,,,-1.62300000e+000,-4.20859352e-007
,,,-1.62200000e+000,-4.30765602e-007
,,,-1.62100000e+000,-4.39890601e-007
,,,-1.62000000e+000,-4.48828101e-007
,,,-1.61900000e+000,-4.58031225e-007
,,,-1.61800000e+000,-4.66687475e-007
,,,-1.61700000e+000,-4.76015599e-007
,,,-1.61600000e+000,-4.83937474e-007
,,,-1.61500000e+000,-4.92562473e-007
,,,-1.61400000e+000,-5.01843722e-007
,,,-1.61300000e+000,-5.10984347e-007
,,,-1.61200000e+000,-5.19296846e-007
,,,-1.61100000e+000,-5.27374971e-007
,,,-1.61000000e+000,-5.35421845e-007
,,,-1.60900000e+000,-5.42437470e-007
,,,-1.60800000e+000,-5.49203095e-007
,,,-1.60700000e+000,-5.55734344e-007
,,,-1.60600000e+000,-5.61234344e-007
,,,-1.60500000e+000,-5.66171844e-007
,,,-1.60400000e+000,-5.70937468e-007
,,,-1.60300000e+000,-5.74843718e-007
,,,-1.60200000e+000,-5.79015593e-007
,,,-1.60100000e+000,-5.82453093e-007
,,,-1.60000000e+000,-5.85390593e-007
,,,-1.59900000e+000,-5.88656217e-007
,,,-1.59800000e+000,-5.91781217e-007
,,,-1.59700000e+000,-5.94296842e-007
,,,-1.59600000e+000,-5.96781217e-007
,,,-1.59500000e+000,-5.98703092e-007
,,,-1.59400000e+000,-6.01109342e-007
,,,-1.59300000e+000,-6.02640591e-007
,,,-1.59200000e+000,-6.03703091e-007
,,,-1.59100000e+000,-6.04015591e-007
,,,-1.59000000e+000,-6.04015591e-007
,,,-1.58900000e+000,-6.04187466e-007
,,,-1.58800000e+000,-6.03937466e-007
,,,-1.58700000e+000,-6.02796841e-007
,,,-1.58600000e+000,-6.00843717e-007
,,,-1.58500000e+000,-5.99671842e-007
,,,-1.58400000e+000,-5.97546842e-007
,,,-1.58300000e+000,-5.95953092e-007
,,,-1.58200000e+000,-5.93531217e-007
,,,-1.58100000e+000,-5.90765592e-007
,,,-1.58000000e+000,-5.89499967e-007
,,,-1.57900000e+000,-5.87374967e-007
,,,-1.57800000e+000,-5.85328093e-007
,,,-1.57700000e+000,-5.82296843e-007
,,,-1.57600000e+000,-5.79406218e-007
,,,-1.57500000e+000,-5.76078093e-007
,,,-1.57400000e+000,-5.72218718e-007
,,,-1.57300000e+000,-5.68031219e-007
,,,-1.57200000e+000,-5.64015594e-007
,,,-1.57100000e+000,-5.59203094e-007
,,,-1.57000000e+000,-5.54312469e-007
,,,-1.56900000e+000,-5.50515595e-007
,,,-1.56800000e+000,-5.45796845e-007
,,,-1.56700000e+000,-5.39906220e-007
,,,-1.56600000e+000,-5.35078096e-007
,,,-1.56500000e+000,-5.30359346e-007
,,,-1.56400000e+000,-5.25484346e-007
,,,-1.56300000e+000,-5.20999971e-007
,,,-1.56200000e+000,-5.16312472e-007
,,,-1.56100000e+000,-5.11671847e-007
,,,-1.56000000e+000,-5.07453097e-007
,,,-1.55900000e+000,-5.02468722e-007
,,,-1.55800000e+000,-4.97093723e-007
,,,-1.55700000e+000,-4.91765598e-007
,,,-1.55600000e+000,-4.87499973e-007
,,,-1.55500000e+000,-4.81890599e-007
,,,-1.55400000e+000,-4.76562474e-007
,,,-1.55300000e+000,-4.71031224e-007
,,,-1.55200000e+000,-4.66374975e-007
,,,-1.55100000e+000,-4.60578100e-007
,,,-1.55000000e+000,-4.56640600e-007
,,,-1.54900000e+000,-4.53109350e-007
,,,-1.54800000e+000,-4.49249976e-007
,,,-1.54700000e+000,-4.46109351e-007
,,,-1.54600000e+000,-4.43015601e-007
,,,-1.54500000e+000,-4.40546851e-007
,,,-1.54400000e+000,-4.37874976e-007
,,,-1.54300000e+000,-4.36203101e-007
,,,-1.54200000e+000,-4.34328101e-007
,,,-1.54100000e+000,-4.32265602e-007
,,,-1.54000000e+000,-4.30484352e-007
,,,-1.53900000e+000,-4.28984352e-007
,,,-1.53800000e+000,-4.26999977e-007
,,,-1.53700000e+000,-4.24499977e-007
,,,-1.53600000e+000,-4.22562477e-007
,,,-1.53500000e+000,-4.21515602e-007
,,,-1.53400000e+000,-4.21812477e-007
,,,-1.53300000e+000,-4.21124977e-007
,,,-1.53200000e+000,-4.20828102e-007
,,,-1.53100000e+000,-4.21937477e-007
,,,-1.53000000e+000,-4.23515602e-007
,,,-1.52900000e+000,-4.24406227e-007
,,,-1.52800000e+000,-4.25874977e-007
,,,-1.52700000e+000,-4.26921852e-007
,,,-1.52600000e+000,-4.28515602e-007
,,,-1.52500000e+000,-4.29874977e-007
,,,-1.52400000e+000,-4.30921852e-007
,,,-1.52300000e+000,-4.31890602e-007
,,,-1.52200000e+000,-4.32921852e-007
,,,-1.52100000e+000,-4.34328101e-007
,,,-1.52000000e+000,-4.35359351e-007
,,,-1.51900000e+000,-4.36671851e-007
,,,-1.51800000e+000,-4.36953101e-007
,,,-1.51700000e+000,-4.37796851e-007
,,,-1.51600000e+000,-4.39109351e-007
,,,-1.51500000e+000,-4.40703101e-007
,,,-1.51400000e+000,-4.41578101e-007
,,,-1.51300000e+000,-4.42562476e-007
,,,-1.51200000e+000,-4.43718726e-007
,,,-1.51100000e+000,-4.44140601e-007
,,,-1.51000000e+000,-4.44843726e-007
,,,-1.50900000e+000,-4.45312476e-007
,,,-1.50800000e+000,-4.45640601e-007
,,,-1.50700000e+000,-4.45296851e-007
,,,-1.50600000e+000,-4.44249976e-007
,,,-1.50500000e+000,-4.43062476e-007
,,,-1.50400000e+000,-4.41406226e-007
,,,-1.50300000e+000,-4.38343726e-007
,,,-1.50200000e+000,-4.35828101e-007
,,,-1.50100000e+000,-4.32499977e-007
,,,-1.50000000e+000,-4.29296852e-007
,,,-1.49900000e+000,-4.26078102e-007
,,,-1.49800000e+000,-4.23265602e-007
,,,-1.49700000e+000,-4.19687477e-007
,,,-1.49600000e+000,-4.15296853e-007
,,,-1.49500000e+000,-4.11734353e-007
,,,-1.49400000e+000,-4.08093728e-007
,,,-1.49300000e+000,-4.05046853e-007
,,,-1.49200000e+000,-4.00593728e-007
,,,-1.49100000e+000,-3.96187479e-007
,,,-1.49000000e+000,-3.91921854e-007
,,,-1.48900000e+000,-3.86937479e-007
,,,-1.48800000e+000,-3.81796855e-007
,,,-1.48700000e+000,-3.75953105e-007
,,,-1.48600000e+000,-3.71531230e-007
,,,-1.48500000e+000,-3.66906230e-007
,,,-1.48400000e+000,-3.62687481e-007
,,,-1.48300000e+000,-3.57953106e-007
,,,-1.48200000e+000,-3.53812481e-007
,,,-1.48100000e+000,-3.49796857e-007
,,,-1.48000000e+000,-3.45671857e-007
,,,-1.47900000e+000,-3.42609357e-007
,,,-1.47800000e+000,-3.39312482e-007
,,,-1.47700000e+000,-3.35578107e-007
,,,-1.47600000e+000,-3.32390608e-007
,,,-1.47500000e+000,-3.28640608e-007
,,,-1.47400000e+000,-3.25249983e-007
,,,-1.47300000e+000,-3.21484358e-007
,,,-1.47200000e+000,-3.17531233e-007
,,,-1.47100000e+000,-3.14031234e-007
,,,-1.47000000e+000,-3.10812484e-007
,,,-1.46900000e+000,-3.06906234e-007
,,,-1.46800000e+000,-3.03312484e-007
,,,-1.46700000e+000,-3.00562484e-007
,,,-1.46600000e+000,-2.97921860e-007
,,,-1.46500000e+000,-2.95343735e-007
,,,-1.46400000e+000,-2.94484360e-007
,,,-1.46300000e+000,-2.92781235e-007
,,,-1.46200000e+000,-2.92671860e-007
,,,-1.46100000e+000,-2.93249985e-007
,,,-1.46000000e+000,-2.93171860e-007
,,,-1.45900000e+000,-2.93984360e-007
,,,-1.45800000e+000,-2.94906235e-007
,,,-1.45700000e+000,-2.96234360e-007
,,,-1.45600000e+000,-2.97812485e-007
,,,-1.45500000e+000,-2.99468734e-007
,,,-1.45400000e+000,-3.01984359e-007
,,,-1.45300000e+000,-3.04593734e-007
,,,-1.45200000e+000,-3.08374984e-007
,,,-1.45100000e+000,-3.11921859e-007
,,,-1.45000000e+000,-3.15406234e-007
,,,-1.44900000e+000,-3.19937483e-007
,,,-1.44800000e+000,-3.25078108e-007
,,,-1.44700000e+000,-3.30656233e-007
,,,-1.44600000e+000,-3.37234357e-007
,,,-1.44500000e+000,-3.45109357e-007
,,,-1.44400000e+000,-3.51765606e-007
,,,-1.44300000e+000,-3.59593731e-007
,,,-1.44200000e+000,-3.66968730e-007
,,,-1.44100000e+000,-3.74546855e-007
,,,-1.44000000e+000,-3.81859355e-007
,,,-1.43900000e+000,-3.89453104e-007
,,,-1.43800000e+000,-3.96328104e-007
,,,-1.43700000e+000,-4.03671853e-007
,,,-1.43600000e+000,-4.10421853e-007
,,,-1.43500000e+000,-4.18374977e-007
,,,-1.43400000e+000,-4.26765602e-007
,,,-1.43300000e+000,-4.35124976e-007
,,,-1.43200000e+000,-4.43374976e-007
,,,-1.43100000e+000,-4.51531225e-007
,,,-1.43000000e+000,-4.60046850e-007
,,,-1.42900000e+000,-4.68546849e-007
,,,-1.42800000e+000,-4.76953099e-007
,,,-1.42700000e+000,-4.85906223e-007
,,,-1.42600000e+000,-4.94468723e-007
,,,-1.42500000e+000,-5.02937472e-007
,,,-1.42400000e+000,-5.11015597e-007
,,,-1.42300000e+000,-5.19328096e-007
,,,-1.42200000e+000,-5.26453096e-007
,,,-1.42100000e+000,-5.33734346e-007
,,,-1.42000000e+000,-5.41078095e-007
,,,-1.41900000e+000,-5.48078095e-007
,,,-1.41800000e+000,-5.55343719e-007
,,,-1.41700000e+000,-5.62078094e-007
,,,-1.41600000e+000,-5.69359343e-007
,,,-1.41500000e+000,-5.75390593e-007
,,,-1.41400000e+000,-5.82765593e-007
,,,-1.41300000e+000,-5.89109342e-007
,,,-1.41200000e+000,-5.95218717e-007
,,,-1.41100000e+000,-6.02062467e-007
,,,-1.41000000e+000,-6.08218716e-007
,,,-1.40900000e+000,-6.13703091e-007
,,,-1.40800000e+000,-6.17812466e-007
,,,-1.40700000e+000,-6.22531215e-007
,,,-1.40600000e+000,-6.26546840e-007
,,,-1.40500000e+000,-6.30187465e-007
,,,-1.40400000e+000,-6.32890590e-007
,,,-1.40300000e+000,-6.35921840e-007
,,,-1.40200000e+000,-6.37703089e-007
,,,-1.40100000e+000,-6.39781214e-007
,,,-1.40000000e+000,-6.41328089e-007
,,,-1.39900000e+000,-6.42921839e-007
,,,-1.39800000e+000,-6.44031214e-007
,,,-1.39700000e+000,-6.44609339e-007
,,,-1.39600000e+000,-6.44843714e-007
,,,-1.39500000e+000,-6.45499964e-007
,,,-1.39400000e+000,-6.44812464e-007
,,,-1.39300000e+000,-6.44765589e-007
,,,-1.39200000e+000,-6.43343714e-007
,,,-1.39100000e+000,-6.41640589e-007
,,,-1.39000000e+000,-6.39249964e-007
,,,-1.38900000e+000,-6.36734339e-007
,,,-1.38800000e+000,-6.33484340e-007
,,,-1.38700000e+000,-6.29609340e-007
,,,-1.38600000e+000,-6.25281215e-007
,,,-1.38500000e+000,-6.21874965e-007
,,,-1.38400000e+000,-6.17624966e-007
,,,-1.38300000e+000,-6.12593716e-007
,,,-1.38200000e+000,-6.07843716e-007
,,,-1.38100000e+000,-6.03359341e-007
,,,-1.38000000e+000,-5.99093717e-007
,,,-1.37900000e+000,-5.94562467e-007
,,,-1.37800000e+000,-5.89453092e-007
,,,-1.37700000e+000,-5.83968718e-007
,,,-1.37600000e+000,-5.79124968e-007
,,,-1.37500000e+000,-5.73265593e-007
,,,-1.37400000e+000,-5.67171844e-007
,,,-1.37300000e+000,-5.61218719e-007
,,,-1.37200000e+000,-5.54234344e-007
,,,-1.37100000e+000,-5.48578095e-007
,,,-1.37000000e+000,-5.41078095e-007
,,,-1.36900000e+000,-5.34312471e-007
,,,-1.36800000e+000,-5.27687471e-007
,,,-1.36700000e+000,-5.21499971e-007
,,,-1.36600000e+000,-5.14624972e-007
,,,-1.36500000e+000,-5.08812472e-007
,,,-1.36400000e+000,-5.03203097e-007
,,,-1.36300000e+000,-4.98328098e-007
,,,-1.36200000e+000,-4.92765598e-007
,,,-1.36100000e+000,-4.88234348e-007
,,,-1.36000000e+000,-4.83062474e-007
,,,-1.35900000e+000,-4.78406224e-007
,,,-1.35800000e+000,-4.74499974e-007
,,,-1.35700000e+000,-4.69874974e-007
,,,-1.35600000e+000,-4.65843725e-007
,,,-1.35500000e+000,-4.60859350e-007
,,,-1.35400000e+000,-4.57187475e-007
,,,-1.35300000e+000,-4.53656225e-007
,,,-1.35200000e+000,-4.50437476e-007
,,,-1.35100000e+000,-4.47499976e-007
,,,-1.35000000e+000,-4.45062476e-007
,,,-1.34900000e+000,-4.42437476e-007
,,,-1.34800000e+000,-4.40593726e-007
,,,-1.34700000e+000,-4.40343726e-007
,,,-1.34600000e+000,-4.40593726e-007
,,,-1.34500000e+000,-4.41281226e-007
,,,-1.34400000e+000,-4.41812476e-007
,,,-1.34300000e+000,-4.42062476e-007
,,,-1.34200000e+000,-4.43406226e-007
,,,-1.34100000e+000,-4.44578101e-007
,,,-1.34000000e+000,-4.45796851e-007
,,,-1.33900000e+000,-4.48015601e-007
,,,-1.33800000e+000,-4.49484351e-007
,,,-1.33700000e+000,-4.51249975e-007
,,,-1.33600000e+000,-4.53421850e-007
,,,-1.33500000e+000,-4.56093725e-007
,,,-1.33400000e+000,-4.58609350e-007
,,,-1.33300000e+000,-4.61578100e-007
,,,-1.33200000e+000,-4.66031225e-007
,,,-1.33100000e+000,-4.70453099e-007
,,,-1.33000000e+000,-4.75249974e-007
,,,-1.32900000e+000,-4.79999974e-007
,,,-1.32800000e+000,-4.85687473e-007
,,,-1.32700000e+000,-4.90703098e-007
,,,-1.32600000e+000,-4.96359348e-007
,,,-1.32500000e+000,-5.02437472e-007
,,,-1.32400000e+000,-5.07734347e-007
,,,-1.32300000e+000,-5.12609347e-007
,,,-1.32200000e+000,-5.17359347e-007
,,,-1.32100000e+000,-5.22124971e-007
,,,-1.32000000e+000,-5.26734346e-007
,,,-1.31900000e+000,-5.30437471e-007
,,,-1.31800000e+000,-5.35687470e-007
,,,-1.31700000e+000,-5.38749970e-007
,,,-1.31600000e+000,-5.42578095e-007
,,,-1.31500000e+000,-5.45562470e-007
,,,-1.31400000e+000,-5.49265595e-007
,,,-1.31300000e+000,-5.52249969e-007
,,,-1.31200000e+000,-5.54953094e-007
,,,-1.31100000e+000,-5.58015594e-007
,,,-1.31000000e+000,-5.59906219e-007
,,,-1.30900000e+000,-5.60921844e-007
,,,-1.30800000e+000,-5.60796844e-007
,,,-1.30700000e+000,-5.59515594e-007
,,,-1.30600000e+000,-5.58390594e-007
,,,-1.30500000e+000,-5.56749969e-007
,,,-1.30400000e+000,-5.54609344e-007
,,,-1.30300000e+000,-5.50593720e-007
,,,-1.30200000e+000,-5.47499970e-007
,,,-1.30100000e+000,-5.43499970e-007
,,,-1.30000000e+000,-5.38874970e-007
,,,-1.29900000e+000,-5.33218721e-007
,,,-1.29800000e+000,-5.27265596e-007
,,,-1.29700000e+000,-5.21765596e-007
,,,-1.29600000e+000,-5.15765597e-007
,,,-1.29500000e+000,-5.09499972e-007
,,,-1.29400000e+000,-5.02968722e-007
,,,-1.29300000e+000,-4.96093723e-007
,,,-1.29200000e+000,-4.89171848e-007
,,,-1.29100000e+000,-4.81390599e-007
,,,-1.29000000e+000,-4.72765599e-007
,,,-1.28900000e+000,-4.64921850e-007
,,,-1.28800000e+000,-4.56624975e-007
,,,-1.28700000e+000,-4.47421851e-007
,,,-1.28600000e+000,-4.38328101e-007
,,,-1.28500000e+000,-4.29874977e-007
,,,-1.28400000e+000,-4.22093727e-007
,,,-1.28300000e+000,-4.14234353e-007
,,,-1.28200000e+000,-4.06156228e-007
,,,-1.28100000e+000,-4.00124979e-007
,,,-1.28000000e+000,-3.92999979e-007
,,,-1.27900000e+000,-3.86437479e-007
,,,-1.27800000e+000,-3.80906230e-007
,,,-1.27700000e+000,-3.75359355e-007
,,,-1.27600000e+000,-3.70578105e-007
,,,-1.27500000e+000,-3.64499981e-007
,,,-1.27400000e+000,-3.59828106e-007
,,,-1.27300000e+000,-3.55796856e-007
,,,-1.27200000e+000,-3.51124981e-007
,,,-1.27100000e+000,-3.47859357e-007
,,,-1.27000000e+000,-3.44031232e-007
,,,-1.26900000e+000,-3.40093732e-007
,,,-1.26800000e+000,-3.37624982e-007
,,,-1.26700000e+000,-3.34828107e-007
,,,-1.26600000e+000,-3.32234358e-007
,,,-1.26500000e+000,-3.31203108e-007
,,,-1.26400000e+000,-3.31281233e-007
,,,-1.26300000e+000,-3.31499983e-007
,,,-1.26200000e+000,-3.32281233e-007
,,,-1.26100000e+000,-3.33218732e-007
,,,-1.26000000e+000,-3.35093732e-007
,,,-1.25900000e+000,-3.36609357e-007
,,,-1.25800000e+000,-3.38421857e-007
,,,-1.25700000e+000,-3.40953107e-007
,,,-1.25600000e+000,-3.42343732e-007
,,,-1.25500000e+000,-3.45468732e-007
,,,-1.25400000e+000,-3.48453107e-007
,,,-1.25300000e+000,-3.51687481e-007
,,,-1.25200000e+000,-3.55593731e-007
,,,-1.25100000e+000,-3.59015606e-007
,,,-1.25000000e+000,-3.63406231e-007
,,,-1.24900000e+000,-3.68374980e-007
,,,-1.24800000e+000,-3.74296855e-007
,,,-1.24700000e+000,-3.80281230e-007
,,,-1.24600000e+000,-3.85734354e-007
,,,-1.24500000e+000,-3.91531229e-007
,,,-1.24400000e+000,-3.97343729e-007
,,,-1.24300000e+000,-4.03031228e-007
,,,-1.24200000e+000,-4.09296853e-007
,,,-1.24100000e+000,-4.14406228e-007
,,,-1.24000000e+000,-4.19421852e-007
,,,-1.23900000e+000,-4.24578102e-007
,,,-1.23800000e+000,-4.29296852e-007
,,,-1.23700000e+000,-4.32953102e-007
,,,-1.23600000e+000,-4.36562476e-007
,,,-1.23500000e+000,-4.39890601e-007
,,,-1.23400000e+000,-4.42093726e-007
,,,-1.23300000e+000,-4.46656226e-007
,,,-1.23200000e+000,-4.49484351e-007
,,,-1.23100000e+000,-4.52734350e-007
,,,-1.23000000e+000,-4.55312475e-007
,,,-1.22900000e+000,-4.58109350e-007
,,,-1.22800000e+000,-4.60781225e-007
,,,-1.22700000e+000,-4.62640600e-007
,,,-1.22600000e+000,-4.64984350e-007
,,,-1.22500000e+000,-4.66078100e-007
,,,-1.22400000e+000,-4.66296850e-007
,,,-1.22300000e+000,-4.66812475e-007
,,,-1.22200000e+000,-4.66874975e-007
,,,-1.22100000e+000,-4.66390600e-007
,,,-1.22000000e+000,-4.65265600e-007
,,,-1.21900000e+000,-4.63484350e-007
,,,-1.21800000e+000,-4.61968725e-007
,,,-1.21700000e+000,-4.60265600e-007
,,,-1.21600000e+000,-4.58109350e-007
,,,-1.21500000e+000,-4.56515600e-007
,,,-1.21400000e+000,-4.54937475e-007
,,,-1.21300000e+000,-4.52999975e-007
,,,-1.21200000e+000,-4.51140600e-007
,,,-1.21100000e+000,-4.48749976e-007
,,,-1.21000000e+000,-4.46265601e-007
,,,-1.20900000e+000,-4.44406226e-007
,,,-1.20800000e+000,-4.41781226e-007
,,,-1.20700000e+000,-4.39265601e-007
,,,-1.20600000e+000,-4.35359351e-007
,,,-1.20500000e+000,-4.31843727e-007
,,,-1.20400000e+000,-4.27968727e-007
,,,-1.20300000e+000,-4.24921852e-007
,,,-1.20200000e+000,-4.21281227e-007
,,,-1.20100000e+000,-4.18187477e-007
,,,-1.20000000e+000,-4.14562478e-007
,,,-1.19900000e+000,-4.11812478e-007
,,,-1.19800000e+000,-4.08796853e-007
,,,-1.19700000e+000,-4.05812478e-007
,,,-1.19600000e+000,-4.03906228e-007
,,,-1.19500000e+000,-4.00578103e-007
,,,-1.19400000e+000,-3.98421854e-007
,,,-1.19300000e+000,-3.96249979e-007
,,,-1.19200000e+000,-3.93499979e-007
,,,-1.19100000e+000,-3.91718729e-007
,,,-1.19000000e+000,-3.88124979e-007
,,,-1.18900000e+000,-3.84953104e-007
,,,-1.18800000e+000,-3.82453105e-007
,,,-1.18700000e+000,-3.79359355e-007
,,,-1.18600000e+000,-3.75453105e-007
,,,-1.18500000e+000,-3.72359355e-007
,,,-1.18400000e+000,-3.68828105e-007
,,,-1.18300000e+000,-3.66156231e-007
,,,-1.18200000e+000,-3.63187481e-007
,,,-1.18100000e+000,-3.60249981e-007
,,,-1.18000000e+000,-3.57078106e-007
,,,-1.17900000e+000,-3.55218731e-007
,,,-1.17800000e+000,-3.52656231e-007
,,,-1.17700000e+000,-3.49640607e-007
,,,-1.17600000e+000,-3.46624982e-007
,,,-1.17500000e+000,-3.44187482e-007
,,,-1.17400000e+000,-3.40874982e-007
,,,-1.17300000e+000,-3.37703107e-007
,,,-1.17200000e+000,-3.34874982e-007
,,,-1.17100000e+000,-3.30890608e-007
,,,-1.17000000e+000,-3.27171858e-007
,,,-1.16900000e+000,-3.23687483e-007
,,,-1.16800000e+000,-3.20171858e-007
,,,-1.16700000e+000,-3.16812483e-007
,,,-1.16600000e+000,-3.13640609e-007
,,,-1.16500000e+000,-3.11015609e-007
